 [
  {"user": "Bob", "message": "how r u doing","time":"12-09-2018::20.18"},
  {"user": "Sally", "message": "Johnson","time":"12-09-2018::20.18"},
  {"user": "Sally", "message": "Johnson","time":"12-09-2018::20.18"},
   {"user": "Sally", "message": "Johnson","time":"12-09-2018::20.18"}
   
]
